R Basics - Grouping - messyR
…
Using the dplyr package to generate groups to allow for the production of summary statistics and aggregations involves two functions; group_by() and ungroup().

group_by() is used to create groups, and ungroup() to remove them.

group_by() - single grouping column

The group_by() function accepts various arguments, you can check these out by running ?group_by. In its most basic usage though, we only need to specify our data (df) and the column or columns that we want the data to be grouped by.

Let’s start by grouping df using the Species column.

df <- dplyr::group_by(df, Species)

print(df)
#' # A tibble: 150 × 5
#' # Groups:   Species [3]
#'    Sepal.Length Sepal.Width Petal.Length Petal.Width Species
#'           <dbl>       <dbl>        <dbl>       <dbl> <fct>  
#'  1          5.1         3.5          1.4         0.2 setosa 
#'  2          4.9         3            1.4         0.2 setosa 
#'  3          4.7         3.2          1.3         0.2 setosa 
#'  4          4.6         3.1          1.5         0.2 setosa 
#'  5          5           3.6          1.4         0.2 setosa 
#'  6          5.4         3.9          1.7         0.4 setosa 
#'  7          4.6         3.4          1.4         0.3 setosa 
#'  8          5           3.4          1.5         0.2 setosa 
#'  9          4.4         2.9          1.4         0.2 setosa 
#' 10          4.9         3.1          1.5         0.1 setosa 
#' # … with 140 more rows
#' # ℹ Use `print(n = ...)` to see more rows
…
group_by() - multiple grouping column

Grouping can also be applied across multiple columns. Lets add a new column to df which we use for grouping. The new column, Big.Petal, will add a logical value based on whether Petal.Length and Petal.Width are above average.

df$Big.Petal <- df$Petal.Length > mean(df$Petal.Length) & df$Petal.Width > mean(df$Petal.Width)

print(df)
#' # A tibble: 150 × 6
#'    Sepal.Length Sepal.Width Petal.Length Petal.Width Species Big.Petal
#'           <dbl>       <dbl>        <dbl>       <dbl> <fct>   <lgl>    
#'  1          5.1         3.5          1.4         0.2 setosa  FALSE    
#'  2          4.9         3            1.4         0.2 setosa  FALSE    
#'  3          4.7         3.2          1.3         0.2 setosa  FALSE    
#'  4          4.6         3.1          1.5         0.2 setosa  FALSE    
#'  5          5           3.6          1.4         0.2 setosa  FALSE    
#'  6          5.4         3.9          1.7         0.4 setosa  FALSE    
#'  7          4.6         3.4          1.4         0.3 setosa  FALSE    
#'  8          5           3.4          1.5         0.2 setosa  FALSE    
#'  9          4.4         2.9          1.4         0.2 setosa  FALSE    
#' 10          4.9         3.1          1.5         0.1 setosa  FALSE    
#' # … with 140 more rows
#' # ℹ Use `print(n = ...)` to see more rows
…
group_by - keep all columns

summarise() works well, but it reduces the number of rows down to one row per distinct combination of the grouping variables, and drops columns that aren’t grouping variables. This may not always be our desired behaviour. If we want to add the mean Sepal.Length value by Species and Big.Petal to our data ‘as is’, we need to use another dplyr function; mutate(). mutate() is used to add new columns.

df <- dplyr::mutate(df, Mean.Sepal.Length = mean(Sepal.Length))

print(df)
#' # A tibble: 150 × 7
#' # Groups:   Species, Big.Petal [4]
#'    Sepal.Length Sepal.Width Petal.Length Petal.Width Species Big.Petal Mean.Se…¹
#'           <dbl>       <dbl>        <dbl>       <dbl> <fct>   <lgl>         <dbl>
#'  1          5.1         3.5          1.4         0.2 setosa  FALSE          5.01
#'  2          4.9         3            1.4         0.2 setosa  FALSE          5.01
#'  3          4.7         3.2          1.3         0.2 setosa  FALSE          5.01
#'  4          4.6         3.1          1.5         0.2 setosa  FALSE          5.01
#'  5          5           3.6          1.4         0.2 setosa  FALSE          5.01
#'  6          5.4         3.9          1.7         0.4 setosa  FALSE          5.01
#'  7          4.6         3.4          1.4         0.3 setosa  FALSE          5.01
#'  8          5           3.4          1.5         0.2 setosa  FALSE          5.01
#'  9          4.4         2.9          1.4         0.2 setosa  FALSE          5.01
#' 10          4.9         3.1          1.5         0.1 setosa  FALSE          5.01
#' # … with 140 more rows, and abbreviated variable name ¹​Mean.Sepal.Length
#' # ℹ Use `print(n = ...)` to see more rows
…
